step8_debug.cpp:414:main:| m=4
step8_debug.cpp:416:main:| x=2
step8_debug.cpp:421:main:| size=4
step8_debug.cpp:426:main | a[0][0]=   1 | a[0][1]=   3 | a[0][2]=   2 | a[0][3]=7
step8_debug.cpp:426:main | a[1][0]=   2 | a[1][1]=   6 | a[1][2]=   4 | a[1][3]=8
step8_debug.cpp:426:main | a[2][0]=   1 | a[2][1]=   4 | a[2][2]=   3 | a[2][3]=1
step8_debug.cpp:210:lines_0_to_bottom:| n1=3| m1=4
step8_debug.cpp:218:lines_0_to_bottom:| i=0
step8_debug.cpp:218:lines_0_to_bottom:| i=1
step8_debug.cpp:218:lines_0_to_bottom:| i=2
step8_debug.cpp:236:lines_0_to_bottom | a[0][0]=   1 | a[0][1]=   3 | a[0][2]=   2 | a[0][3]=7
step8_debug.cpp:236:lines_0_to_bottom | a[1][0]=   2 | a[1][1]=   6 | a[1][2]=   4 | a[1][3]=8
step8_debug.cpp:236:lines_0_to_bottom | a[2][0]=   1 | a[2][1]=   4 | a[2][2]=   3 | a[2][3]=1
step8_debug.cpp:240:lines_0_to_bottom:| exchange_0_at_diag_el k=2
step8_debug.cpp:240:lines_0_to_bottom:| exchange_0_at_diag_el k=1
step8_debug.cpp:252:lines_0_to_bottom | a[0][0]=   1 | a[0][1]=   3 | a[0][2]=   2 | a[0][3]=7
step8_debug.cpp:252:lines_0_to_bottom | a[1][0]=   2 | a[1][1]=   6 | a[1][2]=   4 | a[1][3]=8
step8_debug.cpp:252:lines_0_to_bottom | a[2][0]=   1 | a[2][1]=   4 | a[2][2]=   3 | a[2][3]=1
step8_debug.cpp:259:lines_0bad_to_bottom:| n1=3| m1=4
step8_debug.cpp:267:lines_0bad_to_bottom:| i=0
step8_debug.cpp:267:lines_0bad_to_bottom:| i=1
step8_debug.cpp:267:lines_0bad_to_bottom:| i=2
step8_debug.cpp:286:lines_0bad_to_bottom | a[0][0]=   1 | a[0][1]=   3 | a[0][2]=   2 | a[0][3]=7
step8_debug.cpp:286:lines_0bad_to_bottom | a[1][0]=   2 | a[1][1]=   6 | a[1][2]=   4 | a[1][3]=8
step8_debug.cpp:286:lines_0bad_to_bottom | a[2][0]=   1 | a[2][1]=   4 | a[2][2]=   3 | a[2][3]=1
step8_debug.cpp:157:exchange_if0_at_diag_el:| exchange_0_at_diag_el i1=0
step8_debug.cpp:319:first_pass_at:| divider=1
step8_debug.cpp:334:first_pass_at:| subt=2
step8_debug.cpp:334:first_pass_at:| subt=1
step8_debug.cpp:358:first_pass | a[0][0]=   1 | a[0][1]=   3 | a[0][2]=   2 | a[0][3]=7
step8_debug.cpp:358:first_pass | a[1][0]=   0 | a[1][1]=   0 | a[1][2]=   0 | a[1][3]=-6
step8_debug.cpp:358:first_pass | a[2][0]=   0 | a[2][1]=   1 | a[2][2]=   1 | a[2][3]=-6
step8_debug.cpp:157:exchange_if0_at_diag_el:| exchange_0_at_diag_el i1=1
step8_debug.cpp:167:exchange_if0_at_diag_el:| j=2
step8_debug.cpp:169:exchange_if0_at_diag_el:| a[1]][2]=0
step8_debug.cpp:352:first_pass:| not exchange_0_at_diag_el [1]
step8_debug.cpp:319:first_pass_at:| divider=0
