
e[0][0] =    5.000000 | e[0][1] =    3.000000 | e[0][2] =    8.000000 | e[0][3] =    2.000000 |  f[0] =    6.000000
e[1][0] =    7.000000 | e[1][1] =    2.000000 | e[1][2] =    4.000000 | e[1][3] =    6.000000 |  f[1] =    1.000000

(e0,e0) =  102.000000 | (e0,e1) =   85.000000 | (f,e0) =   57.000000
(e1,e0) =   85.000000 | (e1,e1) =  105.000000 | (f,e1) =   56.000000



(e1,e1) =  102.000000 | (e1,e2) =   85.000000 | (e2,e1) =   85.000000 | (e2,e2) =  105.000000 | (f1,e1) =   57.000000 | (f2,e2) =   56.000000 | 

102 85 57
85 105 56
