================
X    = 12
X.b  = 4
X.c  = 2

n2l = 2 + 0 = 2;
n2r = 4 - 2 = 2;

Xl   = 0
Xl.b = 2
Xl.c = 1


Xr   = 12
Xr.b = 2
Xr.c = 2

0012
00
12
================
X    = 123
X.b  = 4
X.c  = 3

n2l = 2 + 0 = 2;
n2r = 4 - 2 = 2;

? X.c > n2r ? 3 > 2 ? => Xr.c = n2r => Xr.c = 2
Xr   = 23
Xr.b = 2
Xr.c = 2

Xl.c = X.c - Xr.c = 3 - 2 = 1
Xl   = 1
Xl.b = 2
Xl.c = 1


0123
01
23
================
X    = 1
X.b  = 4
X.c  = 1

n2l = 2 + 0 = 2;
n2r = 4 - 2 = 2;

? X.c > n2r ? 1 > 2 ? => Xr.c = X.c => Xr.c = 1
Xr   = 1
Xr.b = 2
Xr.c = 1

Xl.c = X.c - Xr.c = 1 - 1 = 0
Xl   = 0
Xl.b = 2
Xl.c = 1


0012
00
12
================
================
X    = 12
X.b  = 3
X.c  = 2

n2l = 3/2 + 1 = 2;
n2r = 3 - 2 = 1;

? X.c > n2r ? 2 > 1 ? => Xr.c = X.c => Xr.c = 2
Xr   = 12
Xr.b = 2
Xr.c = 2

Xl.c = X.c - Xr.c = 2 - 2 = 0
Xl   = 0
Xl.b = 1
Xl.c = 1


0012
00
12
================

r = [ 0 .. 2 )
l = [ 2 .. 3 )



2 1 0
0 1 2

Xr->v[] = X.v[0]
Xr->v[] = X.v[1]
================



X    = 0123 456
X.b  = 7
X.c  = 6

n2l = 7/2 + 1 = 3 + 1 = 4;
n2r = 7 - 4 = 3;

? X.c > n2r ? 6 > 3 ? => Xr.c = n2r => Xr.c = 3
Xr   = 456
Xr.b = 3
Xr.c = 3

Xl.c = X.c - Xr.c = 6 - 3 = 3
Xl   = 0123
Xl.b = 4
Xl.c = 3


0123 456
0123
456

r = [ 0 .. Xr.c ) = [ 0 .. 3 )
l = [ 0 .. Xl.c ) = [ 0 .. 3 ) = [ Xr.c - )

Xl->v[0] = X.v[Xr.c + l] =  X.v[3 + 0] = X.v[3] = 3
Xl->v[1] = X.v[Xr.c + l] =  X.v[3 + 1] = X.v[4] = 2
Xl->v[2] = X.v[Xr.c + l] =  X.v[3 + 2] = X.v[5] = 1

Xr->v[0] = X.v[0] = 6
Xr->v[1] = X.v[1] = 5
Xr->v[2] = X.v[2] = 4
